{
  "valute": [
    {
      "id": 1,
      "name": "USD",
      "raport": 1
    },
    {
      "id": 2,
      "name": "EUR",
      "raport": 0.85
    },
    {
      "id": 3,
      "name": "MDL",
      "raport": 16.63
    }
  ],
  "items": [
    {
      "id": 1,
      "name": "Gorgeous Concrete Chicken",
      "description": "Est eum voluptatem repellendus quia at sint ut.",
      "price": "49.46",
      "imageUrl": "http://lorempixel.com/640/480/food"
    },
    {
      "id": 2,
      "name": "Small Cotton Mouse",
      "description": "Quod et eius minus rem et et.",
      "price": "14.08",
      "imageUrl": "http://lorempixel.com/640/480/food"
    },
    {
      "id": 3,
      "name": "Rustic Metal Car",
      "description": "Eaque culpa voluptatibus ut accusamus.",
      "price": "34.13",
      "imageUrl": "http://lorempixel.com/640/480/food"
    },
    {
      "id": 4,
      "name": "Generic Granite Gloves",
      "description": "Quas non aliquam eius eum nisi possimus libero.",
      "price": "2.42",
      "imageUrl": "http://lorempixel.com/640/480/food"
    },
    {
      "id": 5,
      "name": "Awesome Steel Chair",
      "description": "Voluptate aut dolor et quidem distinctio commodi.",
      "price": "42.39",
      "imageUrl": "http://lorempixel.com/640/480/food"
    },
    {
      "id": 6,
      "name": "Sleek Steel Chair",
      "description": "Veniam eius omnis eligendi facere odio eum suscipit quia.",
      "price": "30.79",
      "imageUrl": "http://lorempixel.com/640/480/food"
    },
    {
      "id": 7,
      "name": "Refined Cotton Tuna",
      "description": "Est quo iste cupiditate pariatur.",
      "price": "8.49",
      "imageUrl": "http://lorempixel.com/640/480/food"
    },
    {
      "id": 8,
      "name": "Intelligent Concrete Cheese",
      "description": "Qui est eius atque sit aperiam aperiam.",
      "price": "25.23",
      "imageUrl": "http://lorempixel.com/640/480/food"
    },
    {
      "id": 9,
      "name": "Awesome Soft Keyboard",
      "description": "Non aliquam consectetur temporibus molestiae eius at.",
      "price": "26.10",
      "imageUrl": "http://lorempixel.com/640/480/food"
    },
    {
      "id": 10,
      "name": "Awesome Steel Ball",
      "description": "Dignissimos id laudantium doloribus facilis quia.",
      "price": "42.71",
      "imageUrl": "http://lorempixel.com/640/480/food"
    },
    {
      "id": 11,
      "name": "Small Concrete Pants",
      "description": "Rem impedit alias enim voluptate ut.",
      "price": "8.66",
      "imageUrl": "http://lorempixel.com/640/480/food"
    },
    {
      "id": 12,
      "name": "Small Granite Bacon",
      "description": "Aut consequuntur sed in in expedita aliquam.",
      "price": "21.89",
      "imageUrl": "http://lorempixel.com/640/480/food"
    },
    {
      "id": 13,
      "name": "Intelligent Soft Shirt",
      "description": "Eius consequatur omnis esse est et qui ducimus aut.",
      "price": "40.42",
      "imageUrl": "http://lorempixel.com/640/480/food"
    },
    {
      "id": 14,
      "name": "Intelligent Frozen Pants",
      "description": "Fuga temporibus eos eaque voluptatibus.",
      "price": "46.51",
      "imageUrl": "http://lorempixel.com/640/480/food"
    },
    {
      "id": 15,
      "name": "Gorgeous Frozen Shirt",
      "description": "Quis laboriosam facere voluptas blanditiis delectus aliquam eius quas.",
      "price": "25.94",
      "imageUrl": "http://lorempixel.com/640/480/food"
    },
    {
      "id": 16,
      "name": "Rustic Wooden Pants",
      "description": "Ea eaque neque sed distinctio aut eum minus qui sunt.",
      "price": "4.89",
      "imageUrl": "http://lorempixel.com/640/480/food"
    },
    {
      "id": 17,
      "name": "Handmade Rubber Fish",
      "description": "Nisi voluptas iure.",
      "price": "10.19",
      "imageUrl": "http://lorempixel.com/640/480/food"
    },
    {
      "id": 18,
      "name": "Unbranded Metal Shirt",
      "description": "Ipsum nihil voluptate.",
      "price": "49.53",
      "imageUrl": "http://lorempixel.com/640/480/food"
    },
    {
      "id": 19,
      "name": "Handcrafted Metal Tuna",
      "description": "Nulla quis voluptatem error.",
      "price": "44.22",
      "imageUrl": "http://lorempixel.com/640/480/food"
    },
    {
      "id": 20,
      "name": "Unbranded Plastic Shirt",
      "description": "In beatae dolorem laborum sit.",
      "price": "34.13",
      "imageUrl": "http://lorempixel.com/640/480/food"
    },
    {
      "id": 21,
      "name": "Small Metal Fish",
      "description": "Ab officia fuga fugit recusandae quisquam.",
      "price": "36.11",
      "imageUrl": "http://lorempixel.com/640/480/food"
    },
    {
      "id": 22,
      "name": "Refined Granite Keyboard",
      "description": "Expedita eum id aspernatur iste eius qui fugiat.",
      "price": "38.70",
      "imageUrl": "http://lorempixel.com/640/480/food"
    },
    {
      "id": 23,
      "name": "Awesome Concrete Sausages",
      "description": "Sed qui veniam quia dolores dolorum ipsam corporis animi.",
      "price": "9.23",
      "imageUrl": "http://lorempixel.com/640/480/food"
    },
    {
      "id": 24,
      "name": "Small Concrete Chips",
      "description": "Et consequuntur cumque placeat sunt.",
      "price": "14.19",
      "imageUrl": "http://lorempixel.com/640/480/food"
    },
    {
      "id": 25,
      "name": "Tasty Wooden Towels",
      "description": "Recusandae magni cupiditate consequuntur beatae incidunt commodi in illo voluptatem.",
      "price": "28.97",
      "imageUrl": "http://lorempixel.com/640/480/food"
    },
    {
      "id": 26,
      "name": "Handcrafted Soft Gloves",
      "description": "Aperiam totam est sequi et qui ipsam iusto enim.",
      "price": "31.71",
      "imageUrl": "http://lorempixel.com/640/480/food"
    },
    {
      "id": 27,
      "name": "Ergonomic Concrete Soap",
      "description": "Dicta quod qui rem rerum accusamus mollitia omnis.",
      "price": "47.22",
      "imageUrl": "http://lorempixel.com/640/480/food"
    },
    {
      "id": 28,
      "name": "Handmade Wooden Car",
      "description": "Dolor culpa ullam id ipsum quo officiis.",
      "price": "7.82",
      "imageUrl": "http://lorempixel.com/640/480/food"
    },
    {
      "id": 29,
      "name": "Incredible Plastic Ball",
      "description": "Quos quia velit.",
      "price": "46.83",
      "imageUrl": "http://lorempixel.com/640/480/food"
    },
    {
      "id": 30,
      "name": "Tasty Concrete Sausages",
      "description": "Omnis autem voluptates omnis distinctio.",
      "price": "5.05",
      "imageUrl": "http://lorempixel.com/640/480/food"
    },
    {
      "id": 31,
      "name": "Tasty Concrete Pizza",
      "description": "Consequatur officia repellendus laboriosam nemo ut adipisci autem.",
      "price": "13.01",
      "imageUrl": "http://lorempixel.com/640/480/food"
    },
    {
      "id": 32,
      "name": "Generic Fresh Table",
      "description": "Minus molestiae sint sint asperiores.",
      "price": "34.94",
      "imageUrl": "http://lorempixel.com/640/480/food"
    },
    {
      "id": 33,
      "name": "Tasty Metal Car",
      "description": "At et impedit quia hic animi culpa temporibus dicta neque.",
      "price": "15.82",
      "imageUrl": "http://lorempixel.com/640/480/food"
    },
    {
      "id": 34,
      "name": "Licensed Rubber Pizza",
      "description": "Rerum dignissimos assumenda.",
      "price": "32.58",
      "imageUrl": "http://lorempixel.com/640/480/food"
    },
    {
      "id": 35,
      "name": "Licensed Soft Ball",
      "description": "Quia impedit nemo adipisci sed temporibus dignissimos ipsam.",
      "price": "29.44",
      "imageUrl": "http://lorempixel.com/640/480/food"
    },
    {
      "id": 36,
      "name": "Refined Plastic Ball",
      "description": "Vel reiciendis sit rerum nemo.",
      "price": "39.60",
      "imageUrl": "http://lorempixel.com/640/480/food"
    },
    {
      "id": 37,
      "name": "Tasty Wooden Fish",
      "description": "Itaque et quia delectus.",
      "price": "35.71",
      "imageUrl": "http://lorempixel.com/640/480/food"
    },
    {
      "id": 38,
      "name": "Sleek Wooden Pants",
      "description": "Veritatis vel vel eum et facilis.",
      "price": "32.34",
      "imageUrl": "http://lorempixel.com/640/480/food"
    },
    {
      "id": 39,
      "name": "Awesome Rubber Soap",
      "description": "Minima modi voluptatem quia at nihil consequatur.",
      "price": "41.75",
      "imageUrl": "http://lorempixel.com/640/480/food"
    },
    {
      "id": 40,
      "name": "Generic Granite Shirt",
      "description": "Doloribus autem nihil.",
      "price": "39.82",
      "imageUrl": "http://lorempixel.com/640/480/food"
    },
    {
      "id": 41,
      "name": "Generic Soft Tuna",
      "description": "Quasi voluptates cupiditate qui non.",
      "price": "31.69",
      "imageUrl": "http://lorempixel.com/640/480/food"
    },
    {
      "id": 42,
      "name": "Awesome Metal Cheese",
      "description": "Repellat repudiandae velit.",
      "price": "10.82",
      "imageUrl": "http://lorempixel.com/640/480/food"
    },
    {
      "id": 43,
      "name": "Generic Plastic Cheese",
      "description": "Corrupti quia voluptatibus et.",
      "price": "19.22",
      "imageUrl": "http://lorempixel.com/640/480/food"
    },
    {
      "id": 44,
      "name": "Licensed Concrete Shoes",
      "description": "Perferendis consectetur aut quaerat ducimus.",
      "price": "47.40",
      "imageUrl": "http://lorempixel.com/640/480/food"
    },
    {
      "id": 45,
      "name": "Fantastic Concrete Cheese",
      "description": "Iste quasi officiis quisquam laboriosam soluta iure aspernatur qui eveniet.",
      "price": "44.14",
      "imageUrl": "http://lorempixel.com/640/480/food"
    },
    {
      "id": 46,
      "name": "Licensed Steel Mouse",
      "description": "Rerum sint reiciendis eligendi quo numquam est.",
      "price": "18.34",
      "imageUrl": "http://lorempixel.com/640/480/food"
    },
    {
      "id": 47,
      "name": "Handmade Soft Towels",
      "description": "Cumque dolores unde facilis accusamus iusto saepe corrupti.",
      "price": "25.66",
      "imageUrl": "http://lorempixel.com/640/480/food"
    },
    {
      "id": 48,
      "name": "Fantastic Soft Fish",
      "description": "Assumenda ut laboriosam ad delectus qui in.",
      "price": "7.39",
      "imageUrl": "http://lorempixel.com/640/480/food"
    },
    {
      "id": 49,
      "name": "Awesome Steel Bacon",
      "description": "Iure beatae impedit eos corporis voluptate in.",
      "price": "38.49",
      "imageUrl": "http://lorempixel.com/640/480/food"
    },
    {
      "id": 50,
      "name": "Generic Concrete Computer",
      "description": "Mollitia velit esse.",
      "price": "11.30",
      "imageUrl": "http://lorempixel.com/640/480/food"
    },
    {
      "id": 51,
      "name": "Practical Wooden Pizza",
      "description": "Nobis hic excepturi assumenda.",
      "price": "20.90",
      "imageUrl": "http://lorempixel.com/640/480/food"
    },
    {
      "id": 52,
      "name": "Rustic Wooden Mouse",
      "description": "Blanditiis aut eum illo sed ut facilis voluptas tempore facilis.",
      "price": "35.71",
      "imageUrl": "http://lorempixel.com/640/480/food"
    },
    {
      "id": 53,
      "name": "Handcrafted Concrete Car",
      "description": "Voluptatem ipsam ut consequatur vel voluptates et.",
      "price": "10.16",
      "imageUrl": "http://lorempixel.com/640/480/food"
    },
    {
      "id": 54,
      "name": "Gorgeous Steel Car",
      "description": "Magnam dignissimos iste facere sed sequi omnis eligendi.",
      "price": "31.90",
      "imageUrl": "http://lorempixel.com/640/480/food"
    },
    {
      "id": 55,
      "name": "Intelligent Granite Cheese",
      "description": "Nostrum eius et totam.",
      "price": "39.35",
      "imageUrl": "http://lorempixel.com/640/480/food"
    },
    {
      "id": 56,
      "name": "Incredible Concrete Soap",
      "description": "Sit et sunt harum.",
      "price": "44.00",
      "imageUrl": "http://lorempixel.com/640/480/food"
    },
    {
      "id": 57,
      "name": "Awesome Soft Hat",
      "description": "Alias et voluptas voluptas.",
      "price": "24.05",
      "imageUrl": "http://lorempixel.com/640/480/food"
    },
    {
      "id": 58,
      "name": "Practical Metal Chicken",
      "description": "Hic id cupiditate.",
      "price": "21.36",
      "imageUrl": "http://lorempixel.com/640/480/food"
    },
    {
      "id": 59,
      "name": "Intelligent Concrete Salad",
      "description": "Aperiam quae cum et earum est deleniti rem.",
      "price": "24.02",
      "imageUrl": "http://lorempixel.com/640/480/food"
    },
    {
      "id": 60,
      "name": "Small Plastic Computer",
      "description": "Voluptatem occaecati minus tenetur nobis ullam.",
      "price": "7.46",
      "imageUrl": "http://lorempixel.com/640/480/food"
    },
    {
      "id": 61,
      "name": "Licensed Fresh Tuna",
      "description": "Earum quo eveniet.",
      "price": "12.31",
      "imageUrl": "http://lorempixel.com/640/480/food"
    },
    {
      "id": 62,
      "name": "Handmade Rubber Computer",
      "description": "Delectus asperiores repudiandae totam consequuntur.",
      "price": "36.95",
      "imageUrl": "http://lorempixel.com/640/480/food"
    },
    {
      "id": 63,
      "name": "Tasty Metal Bike",
      "description": "Natus assumenda accusamus.",
      "price": "43.66",
      "imageUrl": "http://lorempixel.com/640/480/food"
    },
    {
      "id": 64,
      "name": "Handcrafted Rubber Chips",
      "description": "Delectus voluptate eius fugiat praesentium aspernatur.",
      "price": "12.84",
      "imageUrl": "http://lorempixel.com/640/480/food"
    },
    {
      "id": 65,
      "name": "Fantastic Fresh Chips",
      "description": "Eveniet repudiandae magnam.",
      "price": "44.02",
      "imageUrl": "http://lorempixel.com/640/480/food"
    },
    {
      "id": 66,
      "name": "Rustic Fresh Pants",
      "description": "Sit dolor harum aut eveniet laboriosam et.",
      "price": "38.45",
      "imageUrl": "http://lorempixel.com/640/480/food"
    },
    {
      "id": 67,
      "name": "Small Cotton Bike",
      "description": "Non cupiditate laborum a.",
      "price": "34.72",
      "imageUrl": "http://lorempixel.com/640/480/food"
    },
    {
      "id": 68,
      "name": "Generic Cotton Cheese",
      "description": "Molestiae voluptas tempora voluptatem ut.",
      "price": "2.51",
      "imageUrl": "http://lorempixel.com/640/480/food"
    },
    {
      "id": 69,
      "name": "Ergonomic Plastic Keyboard",
      "description": "Explicabo inventore molestiae sint voluptas.",
      "price": "4.26",
      "imageUrl": "http://lorempixel.com/640/480/food"
    },
    {
      "id": 70,
      "name": "Rustic Frozen Keyboard",
      "description": "Totam fugit magni molestiae deleniti quisquam nisi impedit eveniet qui.",
      "price": "49.13",
      "imageUrl": "http://lorempixel.com/640/480/food"
    },
    {
      "id": 71,
      "name": "Ergonomic Plastic Table",
      "description": "Ducimus doloremque quia eveniet doloremque.",
      "price": "4.66",
      "imageUrl": "http://lorempixel.com/640/480/food"
    },
    {
      "id": 72,
      "name": "Practical Rubber Sausages",
      "description": "Animi cum consectetur dolorum a voluptatem excepturi a.",
      "price": "13.88",
      "imageUrl": "http://lorempixel.com/640/480/food"
    },
    {
      "id": 73,
      "name": "Small Cotton Gloves",
      "description": "Vitae repudiandae molestias quisquam autem ex voluptatum.",
      "price": "14.17",
      "imageUrl": "http://lorempixel.com/640/480/food"
    },
    {
      "id": 74,
      "name": "Practical Wooden Keyboard",
      "description": "Nihil nihil rerum voluptas et.",
      "price": "20.24",
      "imageUrl": "http://lorempixel.com/640/480/food"
    },
    {
      "id": 75,
      "name": "Handcrafted Cotton Cheese",
      "description": "Consequuntur autem corrupti dolorem sint facere voluptas nemo.",
      "price": "21.27",
      "imageUrl": "http://lorempixel.com/640/480/food"
    },
    {
      "id": 76,
      "name": "Fantastic Metal Chicken",
      "description": "Officia quis modi qui et quaerat inventore.",
      "price": "36.99",
      "imageUrl": "http://lorempixel.com/640/480/food"
    },
    {
      "id": 77,
      "name": "Practical Plastic Pizza",
      "description": "Recusandae at officia.",
      "price": "24.60",
      "imageUrl": "http://lorempixel.com/640/480/food"
    },
    {
      "id": 78,
      "name": "Handcrafted Rubber Bacon",
      "description": "Ut quas id accusantium ullam porro.",
      "price": "30.22",
      "imageUrl": "http://lorempixel.com/640/480/food"
    },
    {
      "id": 79,
      "name": "Ergonomic Granite Computer",
      "description": "Expedita soluta est reprehenderit quia laborum.",
      "price": "18.46",
      "imageUrl": "http://lorempixel.com/640/480/food"
    },
    {
      "id": 80,
      "name": "Handcrafted Plastic Table",
      "description": "Perferendis sequi et quibusdam maiores.",
      "price": "18.42",
      "imageUrl": "http://lorempixel.com/640/480/food"
    },
    {
      "id": 81,
      "name": "Practical Soft Chips",
      "description": "Sit voluptas labore quaerat at.",
      "price": "16.59",
      "imageUrl": "http://lorempixel.com/640/480/food"
    },
    {
      "id": 82,
      "name": "Tasty Frozen Bike",
      "description": "Qui consequatur suscipit quas eos est quia.",
      "price": "37.30",
      "imageUrl": "http://lorempixel.com/640/480/food"
    },
    {
      "id": 83,
      "name": "Handcrafted Granite Chair",
      "description": "Consectetur rerum fugiat dolor error ipsa suscipit ut.",
      "price": "5.35",
      "imageUrl": "http://lorempixel.com/640/480/food"
    },
    {
      "id": 84,
      "name": "Unbranded Granite Cheese",
      "description": "Beatae totam iure aut.",
      "price": "47.39",
      "imageUrl": "http://lorempixel.com/640/480/food"
    },
    {
      "id": 85,
      "name": "Awesome Fresh Sausages",
      "description": "Commodi qui minus molestiae quibusdam.",
      "price": "29.44",
      "imageUrl": "http://lorempixel.com/640/480/food"
    },
    {
      "id": 86,
      "name": "Intelligent Granite Hat",
      "description": "Rerum provident error porro eos veniam.",
      "price": "37.27",
      "imageUrl": "http://lorempixel.com/640/480/food"
    },
    {
      "id": 87,
      "name": "Tasty Metal Pants",
      "description": "Consequuntur porro earum.",
      "price": "18.49",
      "imageUrl": "http://lorempixel.com/640/480/food"
    },
    {
      "id": 88,
      "name": "Fantastic Wooden Fish",
      "description": "Provident numquam rerum ut suscipit est.",
      "price": "24.62",
      "imageUrl": "http://lorempixel.com/640/480/food"
    },
    {
      "id": 89,
      "name": "Sleek Steel Keyboard",
      "description": "Sit nemo ipsam quos voluptas maiores quas odit voluptatum mollitia.",
      "price": "36.83",
      "imageUrl": "http://lorempixel.com/640/480/food"
    },
    {
      "id": 90,
      "name": "Generic Concrete Shoes",
      "description": "Qui voluptatibus qui quis mollitia ea et id id.",
      "price": "49.46",
      "imageUrl": "http://lorempixel.com/640/480/food"
    },
    {
      "id": 91,
      "name": "Unbranded Steel Chair",
      "description": "Qui magnam quia quia maiores placeat magni mollitia.",
      "price": "4.80",
      "imageUrl": "http://lorempixel.com/640/480/food"
    },
    {
      "id": 92,
      "name": "Handmade Soft Cheese",
      "description": "Autem architecto debitis omnis sunt optio similique iusto deleniti nam.",
      "price": "39.12",
      "imageUrl": "http://lorempixel.com/640/480/food"
    },
    {
      "id": 93,
      "name": "Licensed Concrete Towels",
      "description": "Ex est qui magni aut modi amet ad nulla et.",
      "price": "35.96",
      "imageUrl": "http://lorempixel.com/640/480/food"
    },
    {
      "id": 94,
      "name": "Licensed Plastic Soap",
      "description": "Perferendis facilis eius quia nihil optio nam voluptatem minus id.",
      "price": "32.43",
      "imageUrl": "http://lorempixel.com/640/480/food"
    },
    {
      "id": 95,
      "name": "Sleek Soft Pants",
      "description": "Quos quos incidunt eveniet modi voluptatem aliquam.",
      "price": "14.82",
      "imageUrl": "http://lorempixel.com/640/480/food"
    },
    {
      "id": 96,
      "name": "Refined Soft Towels",
      "description": "Ratione voluptas voluptate voluptatum qui delectus officia animi.",
      "price": "38.87",
      "imageUrl": "http://lorempixel.com/640/480/food"
    },
    {
      "id": 97,
      "name": "Unbranded Metal Bike",
      "description": "Dignissimos at at ex.",
      "price": "17.04",
      "imageUrl": "http://lorempixel.com/640/480/food"
    },
    {
      "id": 98,
      "name": "Generic Frozen Mouse",
      "description": "Expedita perferendis laudantium quia in cupiditate.",
      "price": "27.86",
      "imageUrl": "http://lorempixel.com/640/480/food"
    },
    {
      "id": 99,
      "name": "Small Fresh Salad",
      "description": "Illum delectus omnis.",
      "price": "49.02",
      "imageUrl": "http://lorempixel.com/640/480/food"
    },
    {
      "id": 100,
      "name": "Licensed Frozen Car",
      "description": "Rerum officiis maxime.",
      "price": "14.85",
      "imageUrl": "http://lorempixel.com/640/480/food"
    },
    {
      "id": 101,
      "name": "Small Soft Ball",
      "description": "Ipsa accusamus perspiciatis.",
      "price": "43.06",
      "imageUrl": "http://lorempixel.com/640/480/food"
    },
    {
      "id": 102,
      "name": "Handmade Metal Mouse",
      "description": "Qui itaque atque.",
      "price": "19.97",
      "imageUrl": "http://lorempixel.com/640/480/food"
    },
    {
      "id": 103,
      "name": "Handcrafted Frozen Fish",
      "description": "Maxime qui velit.",
      "price": "9.68",
      "imageUrl": "http://lorempixel.com/640/480/food"
    },
    {
      "id": 104,
      "name": "Gorgeous Steel Hat",
      "description": "Inventore ullam omnis.",
      "price": "28.62",
      "imageUrl": "http://lorempixel.com/640/480/food"
    },
    {
      "id": 105,
      "name": "Handmade Plastic Keyboard",
      "description": "Culpa illum amet distinctio corporis dolor adipisci.",
      "price": "25.93",
      "imageUrl": "http://lorempixel.com/640/480/food"
    },
    {
      "id": 106,
      "name": "Practical Rubber Soap",
      "description": "Voluptas aliquid atque.",
      "price": "3.14",
      "imageUrl": "http://lorempixel.com/640/480/food"
    },
    {
      "id": 107,
      "name": "Sleek Soft Bacon",
      "description": "Facilis nihil necessitatibus.",
      "price": "41.09",
      "imageUrl": "http://lorempixel.com/640/480/food"
    },
    {
      "id": 108,
      "name": "Handcrafted Steel Car",
      "description": "Iure et eius sunt quam.",
      "price": "30.26",
      "imageUrl": "http://lorempixel.com/640/480/food"
    },
    {
      "id": 109,
      "name": "Intelligent Rubber Pants",
      "description": "Quisquam ullam autem expedita.",
      "price": "10.17",
      "imageUrl": "http://lorempixel.com/640/480/food"
    },
    {
      "id": 110,
      "name": "Rustic Plastic Gloves",
      "description": "Magnam beatae et ut velit soluta.",
      "price": "8.59",
      "imageUrl": "http://lorempixel.com/640/480/food"
    },
    {
      "id": 111,
      "name": "Intelligent Granite Ball",
      "description": "Sed dolorem explicabo qui.",
      "price": "33.27",
      "imageUrl": "http://lorempixel.com/640/480/food"
    },
    {
      "id": 112,
      "name": "Rustic Cotton Hat",
      "description": "Animi sequi molestiae fuga dicta.",
      "price": "46.15",
      "imageUrl": "http://lorempixel.com/640/480/food"
    },
    {
      "id": 113,
      "name": "Sleek Cotton Shoes",
      "description": "Nesciunt excepturi id vel dolorem et aut illum.",
      "price": "35.77",
      "imageUrl": "http://lorempixel.com/640/480/food"
    },
    {
      "id": 114,
      "name": "Licensed Fresh Pants",
      "description": "Consequatur optio voluptatibus modi accusamus atque magnam voluptates.",
      "price": "33.28",
      "imageUrl": "http://lorempixel.com/640/480/food"
    },
    {
      "id": 115,
      "name": "Generic Plastic Pants",
      "description": "Dolor repellendus natus voluptatem nemo magni voluptatum earum est in.",
      "price": "42.09",
      "imageUrl": "http://lorempixel.com/640/480/food"
    },
    {
      "id": 116,
      "name": "Awesome Plastic Mouse",
      "description": "Sapiente sed facere delectus aperiam animi.",
      "price": "30.86",
      "imageUrl": "http://lorempixel.com/640/480/food"
    },
    {
      "id": 117,
      "name": "Refined Concrete Computer",
      "description": "Hic tempora quod qui voluptatibus.",
      "price": "48.73",
      "imageUrl": "http://lorempixel.com/640/480/food"
    },
    {
      "id": 118,
      "name": "Rustic Plastic Shoes",
      "description": "Autem excepturi explicabo iusto libero amet nisi est aut saepe.",
      "price": "3.11",
      "imageUrl": "http://lorempixel.com/640/480/food"
    },
    {
      "id": 119,
      "name": "Handcrafted Granite Tuna",
      "description": "Sapiente vel eligendi sit.",
      "price": "27.48",
      "imageUrl": "http://lorempixel.com/640/480/food"
    },
    {
      "id": 120,
      "name": "Unbranded Steel Soap",
      "description": "Laborum impedit aperiam incidunt sit occaecati pariatur consectetur vero.",
      "price": "41.47",
      "imageUrl": "http://lorempixel.com/640/480/food"
    },
    {
      "id": 121,
      "name": "Incredible Soft Gloves",
      "description": "Voluptatem modi a rerum aut sapiente quaerat quos.",
      "price": "40.10",
      "imageUrl": "http://lorempixel.com/640/480/food"
    },
    {
      "id": 122,
      "name": "Refined Granite Salad",
      "description": "Nam dolorem quasi sapiente aut veniam harum.",
      "price": "32.76",
      "imageUrl": "http://lorempixel.com/640/480/food"
    },
    {
      "id": 123,
      "name": "Fantastic Cotton Bacon",
      "description": "Quis necessitatibus recusandae aut modi atque optio id ipsam consequatur.",
      "price": "36.50",
      "imageUrl": "http://lorempixel.com/640/480/food"
    },
    {
      "id": 124,
      "name": "Sleek Soft Shoes",
      "description": "Illum amet qui distinctio et consequatur minima in perferendis.",
      "price": "37.90",
      "imageUrl": "http://lorempixel.com/640/480/food"
    },
    {
      "id": 125,
      "name": "Handmade Cotton Soap",
      "description": "Autem id repellat.",
      "price": "19.94",
      "imageUrl": "http://lorempixel.com/640/480/food"
    },
    {
      "id": 126,
      "name": "Practical Soft Bacon",
      "description": "Enim neque hic.",
      "price": "49.77",
      "imageUrl": "http://lorempixel.com/640/480/food"
    },
    {
      "id": 127,
      "name": "Tasty Metal Computer",
      "description": "Omnis dolorum non.",
      "price": "42.85",
      "imageUrl": "http://lorempixel.com/640/480/food"
    },
    {
      "id": 128,
      "name": "Handcrafted Metal Chair",
      "description": "Iste dolore nihil sit velit non porro et reiciendis.",
      "price": "21.46",
      "imageUrl": "http://lorempixel.com/640/480/food"
    },
    {
      "id": 129,
      "name": "Handmade Metal Sausages",
      "description": "Eum molestiae explicabo voluptas eius mollitia voluptate similique.",
      "price": "20.81",
      "imageUrl": "http://lorempixel.com/640/480/food"
    },
    {
      "id": 130,
      "name": "Intelligent Fresh Chips",
      "description": "Aut et ut nisi omnis.",
      "price": "10.91",
      "imageUrl": "http://lorempixel.com/640/480/food"
    },
    {
      "id": 131,
      "name": "Gorgeous Soft Ball",
      "description": "In ut repellendus quia repudiandae eum est sed provident.",
      "price": "2.81",
      "imageUrl": "http://lorempixel.com/640/480/food"
    },
    {
      "id": 132,
      "name": "Licensed Wooden Tuna",
      "description": "Non repudiandae nostrum totam optio at ab animi quas.",
      "price": "34.53",
      "imageUrl": "http://lorempixel.com/640/480/food"
    },
    {
      "id": 133,
      "name": "Unbranded Soft Towels",
      "description": "Aut veritatis eveniet velit odit quaerat optio porro minima.",
      "price": "18.82",
      "imageUrl": "http://lorempixel.com/640/480/food"
    },
    {
      "id": 134,
      "name": "Handmade Concrete Car",
      "description": "Qui nesciunt iure aut.",
      "price": "5.49",
      "imageUrl": "http://lorempixel.com/640/480/food"
    },
    {
      "id": 135,
      "name": "Small Wooden Chips",
      "description": "Et commodi dolorem.",
      "price": "42.65",
      "imageUrl": "http://lorempixel.com/640/480/food"
    },
    {
      "id": 136,
      "name": "Sleek Concrete Pizza",
      "description": "Nihil et doloribus eos non est quo.",
      "price": "48.44",
      "imageUrl": "http://lorempixel.com/640/480/food"
    },
    {
      "id": 137,
      "name": "Licensed Rubber Bike",
      "description": "Enim ut quisquam repellendus quis iste.",
      "price": "42.63",
      "imageUrl": "http://lorempixel.com/640/480/food"
    },
    {
      "id": 138,
      "name": "Tasty Frozen Chair",
      "description": "Sint excepturi ut nihil quae vitae.",
      "price": "40.78",
      "imageUrl": "http://lorempixel.com/640/480/food"
    },
    {
      "id": 139,
      "name": "Fantastic Granite Salad",
      "description": "Aut nisi voluptatibus qui non corporis aspernatur quo.",
      "price": "20.12",
      "imageUrl": "http://lorempixel.com/640/480/food"
    },
    {
      "id": 140,
      "name": "Tasty Frozen Pizza",
      "description": "Similique et quia eum aspernatur.",
      "price": "9.62",
      "imageUrl": "http://lorempixel.com/640/480/food"
    },
    {
      "id": 141,
      "name": "Gorgeous Plastic Bacon",
      "description": "Cumque velit nihil aut.",
      "price": "15.46",
      "imageUrl": "http://lorempixel.com/640/480/food"
    },
    {
      "id": 142,
      "name": "Practical Plastic Tuna",
      "description": "Reprehenderit consequuntur nam quasi labore aut amet quam dolores nisi.",
      "price": "11.64",
      "imageUrl": "http://lorempixel.com/640/480/food"
    },
    {
      "id": 143,
      "name": "Practical Frozen Computer",
      "description": "Vero rerum et sequi adipisci quisquam quos id sunt itaque.",
      "price": "36.25",
      "imageUrl": "http://lorempixel.com/640/480/food"
    },
    {
      "id": 144,
      "name": "Gorgeous Frozen Sausages",
      "description": "Quo quam sit in nulla voluptatem minima.",
      "price": "44.92",
      "imageUrl": "http://lorempixel.com/640/480/food"
    },
    {
      "id": 145,
      "name": "Practical Cotton Ball",
      "description": "Qui et dolores numquam est officia veritatis reiciendis.",
      "price": "22.18",
      "imageUrl": "http://lorempixel.com/640/480/food"
    },
    {
      "id": 146,
      "name": "Refined Metal Hat",
      "description": "Molestiae nihil ut nostrum quisquam cupiditate veritatis vel inventore dolor.",
      "price": "27.46",
      "imageUrl": "http://lorempixel.com/640/480/food"
    },
    {
      "id": 147,
      "name": "Handmade Wooden Bacon",
      "description": "Est expedita voluptatem ducimus.",
      "price": "31.71",
      "imageUrl": "http://lorempixel.com/640/480/food"
    },
    {
      "id": 148,
      "name": "Handcrafted Frozen Gloves",
      "description": "Perspiciatis corporis eos aut est est qui et.",
      "price": "31.79",
      "imageUrl": "http://lorempixel.com/640/480/food"
    },
    {
      "id": 149,
      "name": "Gorgeous Concrete Ball",
      "description": "Aut dolorem optio consequuntur.",
      "price": "49.33",
      "imageUrl": "http://lorempixel.com/640/480/food"
    },
    {
      "id": 150,
      "name": "Sleek Rubber Keyboard",
      "description": "Voluptatem libero distinctio numquam dolorem aut quae.",
      "price": "11.59",
      "imageUrl": "http://lorempixel.com/640/480/food"
    }
  ],
  "reservations": [
    {
      "date": "2020-09-07T21:00:00.000Z",
      "time": "2020-09-09T10:19:00.000Z",
      "name": "Sandu",
      "persons": "4",
      "cart": [],
      "id": 1
    },
    {
      "date": "2020-09-10T21:00:00.000Z",
      "time": "2020-09-09T14:54:51.649Z",
      "name": "Sandu",
      "persons": "2",
      "cart": [
        {
          "item": {
            "id": 1,
            "name": "Gorgeous Concrete Chicken",
            "description": "Est eum voluptatem repellendus quia at sint ut.",
            "price": "49.46",
            "imageUrl": "http://lorempixel.com/640/480/food"
          },
          "qty": 1
        },
        {
          "item": {
            "id": 2,
            "name": "Small Cotton Mouse",
            "description": "Quod et eius minus rem et et.",
            "price": "14.08",
            "imageUrl": "http://lorempixel.com/640/480/food"
          },
          "qty": 1
        },
        {
          "item": {
            "id": 3,
            "name": "Rustic Metal Car",
            "description": "Eaque culpa voluptatibus ut accusamus.",
            "price": "34.13",
            "imageUrl": "http://lorempixel.com/640/480/food"
          },
          "qty": 1
        },
        {
          "item": {
            "id": 4,
            "name": "Generic Granite Gloves",
            "description": "Quas non aliquam eius eum nisi possimus libero.",
            "price": "2.42",
            "imageUrl": "http://lorempixel.com/640/480/food"
          },
          "qty": 1
        }
      ],
      "id": 2
    },
    {
      "date": "2020-09-09T21:00:00.000Z",
      "time": "2020-09-10T06:53:28.973Z",
      "name": "Sandu",
      "persons": "2",
      "cart": [
        {
          "item": {
            "id": 1,
            "name": "Gorgeous Concrete Chicken",
            "description": "Est eum voluptatem repellendus quia at sint ut.",
            "price": "49.46",
            "imageUrl": "http://lorempixel.com/640/480/food"
          },
          "qty": 1
        },
        {
          "item": {
            "id": 2,
            "name": "Small Cotton Mouse",
            "description": "Quod et eius minus rem et et.",
            "price": "14.08",
            "imageUrl": "http://lorempixel.com/640/480/food"
          },
          "qty": 1
        }
      ],
      "id": 3
    },
    {
      "date": "2020-09-09T21:00:00.000Z",
      "time": "2020-09-10T13:07:00.000Z",
      "name": "saDS",
      "persons": "4",
      "cart": [],
      "id": 4
    },
    {
      "date": "2020-09-09T21:00:00.000Z",
      "time": "2020-09-10T13:07:00.000Z",
      "name": "saDS",
      "persons": "4",
      "cart": [],
      "id": 5
    },
    {
      "date": "2020-09-09T21:00:00.000Z",
      "time": "2020-09-10T07:08:05.913Z",
      "name": "Sandu",
      "persons": "2",
      "cart": [],
      "id": 6
    },
    {
      "date": "2020-09-10T21:00:00.000Z",
      "time": "2020-09-10T07:11:25.828Z",
      "name": "Sandu",
      "persons": "2",
      "cart": [],
      "id": 7
    },
    {
      "date": "2020-09-09T21:00:00.000Z",
      "time": "2020-09-10T07:15:55.215Z",
      "name": "Sandu",
      "persons": "4",
      "cart": [],
      "id": 8
    },
    {
      "date": "2020-09-09T21:00:00.000Z",
      "time": "2020-09-10T07:15:55.215Z",
      "name": "Sandu",
      "persons": "4",
      "cart": [],
      "id": 9
    },
    {
      "date": "2020-09-09T21:00:00.000Z",
      "time": "2020-09-10T07:15:55.215Z",
      "name": "Sandu",
      "persons": "4",
      "cart": [],
      "id": 10
    },
    {
      "date": "2020-09-07T21:00:00.000Z",
      "time": "2020-09-10T07:20:57.166Z",
      "name": "Sandu",
      "persons": "2",
      "cart": [
        {
          "item": {
            "id": 1,
            "name": "Gorgeous Concrete Chicken",
            "description": "Est eum voluptatem repellendus quia at sint ut.",
            "price": "49.46",
            "imageUrl": "http://lorempixel.com/640/480/food"
          },
          "qty": 1
        },
        {
          "item": {
            "id": 2,
            "name": "Small Cotton Mouse",
            "description": "Quod et eius minus rem et et.",
            "price": "14.08",
            "imageUrl": "http://lorempixel.com/640/480/food"
          },
          "qty": 1
        }
      ],
      "id": 11
    },
    {
      "date": "2020-09-09T21:00:00.000Z",
      "time": "2020-09-10T07:22:37.131Z",
      "name": "Sandu",
      "persons": "2",
      "cart": [
        {
          "item": {
            "id": 1,
            "name": "Gorgeous Concrete Chicken",
            "description": "Est eum voluptatem repellendus quia at sint ut.",
            "price": "49.46",
            "imageUrl": "http://lorempixel.com/640/480/food"
          },
          "qty": 1
        },
        {
          "item": {
            "id": 2,
            "name": "Small Cotton Mouse",
            "description": "Quod et eius minus rem et et.",
            "price": "14.08",
            "imageUrl": "http://lorempixel.com/640/480/food"
          },
          "qty": 1
        }
      ],
      "id": 12
    }
  ]
}